season,team
2017-2018,Chelsea
2017-2018,Tottenham Hotspur
2017-2018,Liverpool
2017-2018,Manchester City
2017-2018,Manchester United
2018-2019,Manchester City
2018-2019,Manchester United
2018-2019,Tottenham Hotspur
2018-2019,Liverpool
2019-2020,Liverpool
2019-2020,Chelsea
2019-2020,Manchester City
2019-2020,Tottenham Hotspur
2020-2021,Chelsea
2020-2021,Liverpool
2020-2021,Manchester City
2020-2021,Manchester United
2021-2022,Chelsea
2021-2022,Liverpool
2021-2022,Manchester City
2021-2022,Manchester United
