,season,competition,match_id
0,17/18,English Premier League,1190441
1,17/18,English Premier League,1190425
2,17/18,English Premier League,1190516
3,17/18,English Premier League,1190507
4,17/18,English Premier League,1190433
5,17/18,English Premier League,1190509
6,17/18,English Premier League,1190457
7,17/18,English Premier League,1190460
8,17/18,English Premier League,1190547
9,17/18,English Premier League,1190451
10,17/18,English Premier League,1190454
11,17/18,English Premier League,1190471
12,17/18,English Premier League,1190473
13,17/18,English Premier League,1190475
14,17/18,English Premier League,1190477
15,17/18,English Premier League,1190479
16,17/18,English Premier League,1190497
17,17/18,English Premier League,1190452
18,17/18,English Premier League,1190465
19,17/18,English Premier League,1190467
20,17/18,English Premier League,1190469
21,17/18,English Premier League,1190461
22,17/18,English Premier League,1190553
23,17/18,English Premier League,1190458
24,17/18,English Premier League,1190463
25,17/18,English Premier League,1190455
26,17/18,English Premier League,1190552
27,17/18,English Premier League,1190517
28,17/18,English Premier League,1190492
29,17/18,English Premier League,1190489
30,17/18,English Premier League,1190490
31,17/18,English Premier League,1190491
32,17/18,English Premier League,1190494
33,17/18,English Premier League,1190495
34,17/18,English Premier League,1190496
35,17/18,English Premier League,1190498
36,17/18,English Premier League,1190493
37,17/18,English Premier League,1190508
38,17/18,English Premier League,1190514
39,17/18,English Premier League,1190512
40,17/18,English Premier League,1190417
41,17/18,English Premier League,1190484
42,17/18,English Premier League,1190488
43,17/18,English Premier League,1190487
44,17/18,English Premier League,1190486
45,17/18,English Premier League,1190510
46,17/18,English Premier League,1190485
47,17/18,English Premier League,1190504
48,17/18,English Premier League,1190505
49,17/18,English Premier League,1190483
50,17/18,English Premier League,1190499
51,17/18,English Premier League,1190500
52,17/18,English Premier League,1190501
53,17/18,English Premier League,1190506
54,17/18,English Premier League,1190503
55,17/18,English Premier League,1190502
56,17/18,English Premier League,1190474
57,17/18,English Premier League,1190476
58,17/18,English Premier League,1190468
59,17/18,English Premier League,1190470
60,17/18,English Premier League,1190480
61,17/18,English Premier League,1190481
62,17/18,English Premier League,1190482
63,17/18,English Premier League,1190478
64,17/18,English Premier League,1190466
65,17/18,English Premier League,1190472
66,17/18,English Premier League,1190550
67,17/18,English Premier League,1190513
68,17/18,English Premier League,1190212
69,17/18,English Premier League,1190453
70,17/18,English Premier League,1190456
71,17/18,English Premier League,1190462
72,17/18,English Premier League,1190464
73,17/18,English Premier League,1190551
74,17/18,English Premier League,1190511
75,17/18,English Premier League,1190515
76,17/18,English Premier League,1190401
77,17/18,English Premier League,1190413
78,17/18,English Premier League,1190421
79,17/18,English Premier League,1190437
80,17/18,English Premier League,1190429
81,17/18,English Premier League,1190341
82,17/18,English Premier League,1190393
83,17/18,English Premier League,1190397
84,17/18,English Premier League,1190405
85,17/18,English Premier League,1190409
86,17/18,English Premier League,1190385
87,17/18,English Premier League,1190389
88,17/18,English Premier League,1190381
89,17/18,English Premier League,1190373
90,17/18,English Premier League,1190377
91,17/18,English Premier League,1190419
92,17/18,English Premier League,1190337
93,17/18,English Premier League,1190345
94,17/18,English Premier League,1190357
95,17/18,English Premier League,1190361
96,17/18,English Premier League,1190365
97,17/18,English Premier League,1190369
98,17/18,English Premier League,1190349
99,17/18,English Premier League,1190333
100,17/18,English Premier League,1190353
101,17/18,English Premier League,1190439
102,17/18,English Premier League,1190443
103,17/18,English Premier League,1190329
104,17/18,English Premier League,1190423
105,17/18,English Premier League,1190427
106,17/18,English Premier League,1190431
107,17/18,English Premier League,1190449
108,17/18,English Premier League,1190435
109,17/18,English Premier League,1190446
110,17/18,English Premier League,1190379
111,17/18,English Premier League,1190371
112,17/18,English Premier League,1190411
113,17/18,English Premier League,1190415
114,17/18,English Premier League,1190383
115,17/18,English Premier League,1190403
116,17/18,English Premier League,1190407
117,17/18,English Premier League,1190391
118,17/18,English Premier League,1190387
119,17/18,English Premier League,1190395
120,17/18,English Premier League,1190399
121,17/18,English Premier League,1190422
122,17/18,English Premier League,1190426
123,17/18,English Premier League,1190418
124,17/18,English Premier League,1190430
125,17/18,English Premier League,1190434
126,17/18,English Premier League,1190438
127,17/18,English Premier League,1190442
128,17/18,English Premier League,1190445
129,17/18,English Premier League,1190448
130,17/18,English Premier League,1190335
131,17/18,English Premier League,1190351
132,17/18,English Premier League,1190359
133,17/18,English Premier League,1190343
134,17/18,English Premier League,1190347
135,17/18,English Premier League,1190367
136,17/18,English Premier League,1190375
137,17/18,English Premier League,1190339
138,17/18,English Premier League,1190355
139,17/18,English Premier League,1190363
140,17/18,English Premier League,1190410
141,17/18,English Premier League,1190358
142,17/18,English Premier League,1190382
143,17/18,English Premier League,1190386
144,17/18,English Premier League,1190390
145,17/18,English Premier League,1190394
146,17/18,English Premier League,1190378
147,17/18,English Premier League,1190406
148,17/18,English Premier League,1190414
149,17/18,English Premier League,1190398
150,17/18,English Premier League,1190402
151,17/18,English Premier League,1190342
152,17/18,English Premier League,1190346
153,17/18,English Premier League,1190350
154,17/18,English Premier League,1190362
155,17/18,English Premier League,1190370
156,17/18,English Premier League,1190374
157,17/18,English Premier League,1190366
158,17/18,English Premier League,1190338
159,17/18,English Premier League,1190354
160,17/18,English Premier League,1190424
161,17/18,English Premier League,1190428
162,17/18,English Premier League,1190436
163,17/18,English Premier League,1190447
164,17/18,English Premier League,1190432
165,17/18,English Premier League,1190450
166,17/18,English Premier League,1190334
167,17/18,English Premier League,1190444
168,17/18,English Premier League,1190440
169,17/18,English Premier League,1190420
170,17/18,English Premier League,1190408
171,17/18,English Premier League,1190368
172,17/18,English Premier League,1190372
173,17/18,English Premier League,1190376
174,17/18,English Premier League,1190340
175,17/18,English Premier League,1190344
176,17/18,English Premier League,1190352
177,17/18,English Premier League,1190360
178,17/18,English Premier League,1190356
179,17/18,English Premier League,1190364
180,17/18,English Premier League,1190348
181,17/18,English Premier League,1190380
182,17/18,English Premier League,1190384
183,17/18,English Premier League,1190392
184,17/18,English Premier League,1190396
185,17/18,English Premier League,1190404
186,17/18,English Premier League,1190412
187,17/18,English Premier League,1190400
188,17/18,English Premier League,1190388
189,17/18,English Premier League,1190416
190,17/18,English Premier League,1190549
191,17/18,English Premier League,1190528
192,17/18,English Premier League,1190535
193,17/18,English Premier League,1190332
194,17/18,English Premier League,1190336
195,17/18,English Premier League,1190530
196,17/18,English Premier League,1190545
197,17/18,English Premier League,1190541
198,17/18,English Premier League,1190543
199,17/18,English Premier League,1190532
200,17/18,English Premier League,1190538
201,17/18,English Premier League,1190519
202,17/18,English Premier League,1190521
203,17/18,English Premier League,1190527
204,17/18,English Premier League,1190523
205,17/18,English Premier League,1190531
206,17/18,English Premier League,1190533
207,17/18,English Premier League,1190536
208,17/18,English Premier League,1190539
209,17/18,English Premier League,1190525
210,17/18,English Premier League,1190529
211,17/18,English Premier League,1190518
212,17/18,English Premier League,1190524
213,17/18,English Premier League,1190542
214,17/18,English Premier League,1190546
215,17/18,English Premier League,1190548
216,17/18,English Premier League,1190522
217,17/18,English Premier League,1190520
218,17/18,English Premier League,1190526
219,17/18,English Premier League,1190544
220,17/18,English Premier League,1190325
221,17/18,English Premier League,1190317
222,17/18,English Premier League,1190289
223,17/18,English Premier League,1190293
224,17/18,English Premier League,1190297
225,17/18,English Premier League,1190321
226,17/18,English Premier League,1190309
227,17/18,English Premier League,1190313
228,17/18,English Premier League,1190301
229,17/18,English Premier League,1190305
230,17/18,English Premier League,1190288
231,17/18,English Premier League,1190285
232,17/18,English Premier League,1190291
233,17/18,English Premier League,1190295
234,17/18,English Premier League,1190299
235,17/18,English Premier League,1190282
236,17/18,English Premier League,1190279
237,17/18,English Premier League,1190303
238,17/18,English Premier League,1190307
239,17/18,English Premier League,1190311
240,17/18,English Premier League,1190327
241,17/18,English Premier League,1190331
242,17/18,English Premier League,1190323
243,17/18,English Premier League,1190280
244,17/18,English Premier League,1190274
245,17/18,English Premier League,1190283
246,17/18,English Premier League,1190286
247,17/18,English Premier League,1190315
248,17/18,English Premier League,1190319
249,17/18,English Premier League,1190277
250,17/18,English Premier League,1190328
251,17/18,English Premier League,1190276
252,17/18,English Premier League,1190314
253,17/18,English Premier League,1190318
254,17/18,English Premier League,1190302
255,17/18,English Premier League,1190330
256,17/18,English Premier League,1190326
257,17/18,English Premier League,1190310
258,17/18,English Premier League,1190322
259,17/18,English Premier League,1190298
260,17/18,English Premier League,1190306
261,17/18,English Premier League,1190320
262,17/18,English Premier League,1190324
263,17/18,English Premier League,1190294
264,17/18,English Premier League,1190275
265,17/18,English Premier League,1190278
266,17/18,English Premier League,1190281
267,17/18,English Premier League,1190284
268,17/18,English Premier League,1190287
269,17/18,English Premier League,1190290
270,17/18,English Premier League,1190244
271,17/18,English Premier League,1190304
272,17/18,English Premier League,1190308
273,17/18,English Premier League,1190262
274,17/18,English Premier League,1190296
275,17/18,English Premier League,1190300
276,17/18,English Premier League,1190316
277,17/18,English Premier League,1190312
278,17/18,English Premier League,1190292
279,17/18,English Premier League,1190258
280,17/18,English Premier League,1190260
281,17/18,English Premier League,1190252
282,17/18,English Premier League,1190254
283,17/18,English Premier League,1190256
284,17/18,English Premier League,1190246
285,17/18,English Premier League,1190236
286,17/18,English Premier League,1190250
287,17/18,English Premier League,1190239
288,17/18,English Premier League,1190242
289,17/18,English Premier League,1190248
290,17/18,English Premier League,1190269
291,17/18,English Premier League,1190235
292,17/18,English Premier League,1190540
293,17/18,English Premier League,1190232
294,17/18,English Premier League,1190233
295,17/18,English Premier League,1190226
296,17/18,English Premier League,1190228
297,17/18,English Premier League,1190230
298,17/18,English Premier League,1190231
299,17/18,English Premier League,1190224
300,17/18,English Premier League,1190234
301,17/18,English Premier League,1190270
302,17/18,English Premier League,1190271
303,17/18,English Premier League,1190267
304,17/18,English Premier League,1190268
305,17/18,English Premier League,1190273
306,17/18,English Premier League,1190534
307,17/18,English Premier League,1190537
308,17/18,English Premier League,1190266
309,17/18,English Premier League,1190272
310,17/18,English Premier League,1190210
311,17/18,English Premier League,1190257
312,17/18,English Premier League,1190259
313,17/18,English Premier League,1190263
314,17/18,English Premier League,1190264
315,17/18,English Premier League,1190265
316,17/18,English Premier League,1190251
317,17/18,English Premier League,1190253
318,17/18,English Premier League,1190249
319,17/18,English Premier League,1190255
320,17/18,English Premier League,1190261
321,17/18,English Premier League,1190247
322,17/18,English Premier League,1190216
323,17/18,English Premier League,1190219
324,17/18,English Premier League,1190237
325,17/18,English Premier League,1190240
326,17/18,English Premier League,1190243
327,17/18,English Premier League,1190245
328,17/18,English Premier League,1190222
329,17/18,English Premier League,1190213
330,17/18,English Premier League,1190238
331,17/18,English Premier League,1190241
332,17/18,English Premier League,1190192
333,17/18,English Premier League,1190194
334,17/18,English Premier League,1190196
335,17/18,English Premier League,1190200
336,17/18,English Premier League,1190204
337,17/18,English Premier League,1190207
338,17/18,English Premier League,1190202
339,17/18,English Premier League,1190191
340,17/18,English Premier League,1190198
341,17/18,English Premier League,1190223
342,17/18,English Premier League,1190225
343,17/18,English Premier League,1190208
344,17/18,English Premier League,1190211
345,17/18,English Premier League,1190217
346,17/18,English Premier League,1190220
347,17/18,English Premier League,1190227
348,17/18,English Premier League,1190214
349,17/18,English Premier League,1190229
350,17/18,English Premier League,1190189
351,17/18,English Premier League,1190215
352,17/18,English Premier League,1190221
353,17/18,English Premier League,1190193
354,17/18,English Premier League,1190199
355,17/18,English Premier League,1190203
356,17/18,English Premier League,1190197
357,17/18,English Premier League,1190218
358,17/18,English Premier League,1190205
359,17/18,English Premier League,1190201
360,17/18,English Premier League,1190195
361,17/18,English Premier League,1190206
362,17/18,English Premier League,1190187
363,17/18,English Premier League,1190188
364,17/18,English Premier League,1190184
365,17/18,English Premier League,1190185
366,17/18,English Premier League,1190459
367,17/18,English Premier League,1190190
368,17/18,English Premier League,1190186
369,17/18,English Premier League,1190209
370,17/18,English Premier League,1190174
371,17/18,English Premier League,1190182
372,17/18,English Premier League,1190183
373,17/18,English Premier League,1190181
374,17/18,English Premier League,1190176
375,17/18,English Premier League,1190177
376,17/18,English Premier League,1190178
377,17/18,English Premier League,1190175
378,17/18,English Premier League,1190180
379,17/18,English Premier League,1190179
0,18/19,English Premier League,1285050
1,18/19,English Premier League,1285057
2,18/19,English Premier League,1285058
3,18/19,English Premier League,1285059
4,18/19,English Premier League,1285060
5,18/19,English Premier League,1285061
6,18/19,English Premier League,1285062
7,18/19,English Premier League,1285063
8,18/19,English Premier League,1285064
9,18/19,English Premier League,1285065
10,18/19,English Premier League,1285066
11,18/19,English Premier League,1285044
12,18/19,English Premier League,1285035
13,18/19,English Premier League,1285054
14,18/19,English Premier League,1285056
15,18/19,English Premier League,1285038
16,18/19,English Premier League,1285052
17,18/19,English Premier League,1285041
18,18/19,English Premier League,1285047
19,18/19,English Premier League,1285032
20,18/19,English Premier League,1284966
21,18/19,English Premier League,1284903
22,18/19,English Premier League,1285048
23,18/19,English Premier League,1285053
24,18/19,English Premier League,1285042
25,18/19,English Premier League,1285014
26,18/19,English Premier League,1285026
27,18/19,English Premier League,1285029
28,18/19,English Premier League,1285022
29,18/19,English Premier League,1285002
30,18/19,English Premier League,1285006
31,18/19,English Premier League,1284994
32,18/19,English Premier League,1285010
33,18/19,English Premier League,1284998
34,18/19,English Premier League,1285018
35,18/19,English Premier League,1284950
36,18/19,English Premier League,1285030
37,18/19,English Premier League,1284978
38,18/19,English Premier League,1284986
39,18/19,English Premier League,1284990
40,18/19,English Premier League,1284958
41,18/19,English Premier League,1284974
42,18/19,English Premier League,1284982
43,18/19,English Premier League,1284970
44,18/19,English Premier League,1284962
45,18/19,English Premier League,1284954
46,18/19,English Premier League,1284885
47,18/19,English Premier League,1284930
48,18/19,English Premier League,1284946
49,18/19,English Premier League,1284942
50,18/19,English Premier League,1284926
51,18/19,English Premier League,1284914
52,18/19,English Premier League,1284918
53,18/19,English Premier League,1284938
54,18/19,English Premier League,1284922
55,18/19,English Premier League,1284934
56,18/19,English Premier League,1285055
57,18/19,English Premier League,1284906
58,18/19,English Premier League,1284910
59,18/19,English Premier League,1285045
60,18/19,English Premier League,1284889
61,18/19,English Premier League,1284894
62,18/19,English Premier League,1284900
63,18/19,English Premier League,1284897
64,18/19,English Premier League,1284891
65,18/19,English Premier League,1284882
66,18/19,English Premier League,1284888
67,18/19,English Premier League,1284867
68,18/19,English Premier League,1284870
69,18/19,English Premier League,1284855
70,18/19,English Premier League,1284858
71,18/19,English Premier League,1284876
72,18/19,English Premier League,1284864
73,18/19,English Premier League,1284879
74,18/19,English Premier League,1284861
75,18/19,English Premier League,1284873
76,18/19,English Premier League,1285051
77,18/19,English Premier League,1285027
78,18/19,English Premier League,1285033
79,18/19,English Premier League,1285039
80,18/19,English Premier League,1285036
81,18/19,English Premier League,1284999
82,18/19,English Premier League,1285003
83,18/19,English Premier League,1285007
84,18/19,English Premier League,1284991
85,18/19,English Premier League,1285019
86,18/19,English Premier League,1285023
87,18/19,English Premier League,1285015
88,18/19,English Premier League,1285011
89,18/19,English Premier League,1284995
90,18/19,English Premier League,1284987
91,18/19,English Premier League,1284911
92,18/19,English Premier League,1284915
93,18/19,English Premier League,1284919
94,18/19,English Premier League,1284931
95,18/19,English Premier League,1284935
96,18/19,English Premier League,1284907
97,18/19,English Premier League,1284923
98,18/19,English Premier League,1284927
99,18/19,English Premier League,1284939
100,18/19,English Premier League,1284943
101,18/19,English Premier League,1284971
102,18/19,English Premier League,1284983
103,18/19,English Premier League,1284947
104,18/19,English Premier League,1284951
105,18/19,English Premier League,1284955
106,18/19,English Premier League,1284967
107,18/19,English Premier League,1284979
108,18/19,English Premier League,1284975
109,18/19,English Premier League,1284963
110,18/19,English Premier League,1284959
111,18/19,English Premier League,1284886
112,18/19,English Premier League,1284904
113,18/19,English Premier League,1284883
114,18/19,English Premier League,1284901
115,18/19,English Premier League,1284880
116,18/19,English Premier League,1284895
117,18/19,English Premier League,1284898
118,18/19,English Premier League,1284877
119,18/19,English Premier League,1284874
120,18/19,English Premier League,1285117
121,18/19,English Premier League,1284892
122,18/19,English Premier League,1285120
123,18/19,English Premier League,1285119
124,18/19,English Premier League,1284871
125,18/19,English Premier League,1284856
126,18/19,English Premier League,1284859
127,18/19,English Premier League,1284865
128,18/19,English Premier League,1285118
129,18/19,English Premier League,1284868
130,18/19,English Premier League,1284862
131,18/19,English Premier League,1285100
132,18/19,English Premier League,1285101
133,18/19,English Premier League,1285102
134,18/19,English Premier League,1285098
135,18/19,English Premier League,1285103
136,18/19,English Premier League,1285104
137,18/19,English Premier League,1285105
138,18/19,English Premier League,1285099
139,18/19,English Premier League,1285106
140,18/19,English Premier League,1285107
141,18/19,English Premier League,1285116
142,18/19,English Premier League,1285111
143,18/19,English Premier League,1285112
144,18/19,English Premier League,1285113
145,18/19,English Premier League,1285108
146,18/19,English Premier League,1285109
147,18/19,English Premier League,1285110
148,18/19,English Premier League,1285114
149,18/19,English Premier League,1285115
150,18/19,English Premier League,1285085
151,18/19,English Premier League,1285097
152,18/19,English Premier League,1285089
153,18/19,English Premier League,1285092
154,18/19,English Premier League,1285093
155,18/19,English Premier League,1285094
156,18/19,English Premier League,1285095
157,18/19,English Premier League,1285096
158,18/19,English Premier League,1285088
159,18/19,English Premier League,1285091
160,18/19,English Premier League,1285090
161,18/19,English Premier League,1285087
162,18/19,English Premier League,1285078
163,18/19,English Premier League,1285079
164,18/19,English Premier League,1285080
165,18/19,English Premier League,1285082
166,18/19,English Premier League,1285084
167,18/19,English Premier League,1285081
168,18/19,English Premier League,1285083
169,18/19,English Premier League,1285086
170,18/19,English Premier League,1285072
171,18/19,English Premier League,1285068
172,18/19,English Premier League,1285070
173,18/19,English Premier League,1285071
174,18/19,English Premier League,1285073
175,18/19,English Premier League,1285069
176,18/19,English Premier League,1285076
177,18/19,English Premier League,1285077
178,18/19,English Premier League,1285075
179,18/19,English Premier League,1285074
180,18/19,English Premier League,1284997
181,18/19,English Premier League,1285001
182,18/19,English Premier League,1285005
183,18/19,English Premier League,1285009
184,18/19,English Premier League,1284989
185,18/19,English Premier League,1284993
186,18/19,English Premier League,1285017
187,18/19,English Premier League,1284985
188,18/19,English Premier League,1285021
189,18/19,English Premier League,1285013
190,18/19,English Premier League,1285025
191,18/19,English Premier League,1285034
192,18/19,English Premier League,1285037
193,18/19,English Premier League,1285049
194,18/19,English Premier League,1285067
195,18/19,English Premier League,1285040
196,18/19,English Premier League,1285031
197,18/19,English Premier League,1285046
198,18/19,English Premier League,1285028
199,18/19,English Premier League,1285043
200,18/19,English Premier League,1284981
201,18/19,English Premier League,1284945
202,18/19,English Premier League,1284949
203,18/19,English Premier League,1284957
204,18/19,English Premier League,1284965
205,18/19,English Premier League,1284969
206,18/19,English Premier League,1284973
207,18/19,English Premier League,1284977
208,18/19,English Premier League,1284953
209,18/19,English Premier League,1284961
210,18/19,English Premier League,1284890
211,18/19,English Premier League,1284925
212,18/19,English Premier League,1284917
213,18/19,English Premier League,1284909
214,18/19,English Premier League,1284933
215,18/19,English Premier League,1284937
216,18/19,English Premier League,1284941
217,18/19,English Premier League,1284913
218,18/19,English Premier League,1284905
219,18/19,English Premier League,1284929
220,18/19,English Premier League,1284921
221,18/19,English Premier League,1285020
222,18/19,English Premier League,1285024
223,18/19,English Premier League,1284860
224,18/19,English Premier League,1284857
225,18/19,English Premier League,1284863
226,18/19,English Premier League,1284851
227,18/19,English Premier League,1284854
228,18/19,English Premier League,1284869
229,18/19,English Premier League,1284872
230,18/19,English Premier League,1284866
231,18/19,English Premier League,1284878
232,18/19,English Premier League,1284881
233,18/19,English Premier League,1284884
234,18/19,English Premier League,1284875
235,18/19,English Premier League,1284896
236,18/19,English Premier League,1284902
237,18/19,English Premier League,1284887
238,18/19,English Premier League,1284893
239,18/19,English Premier League,1284899
240,18/19,English Premier League,1284948
241,18/19,English Premier League,1284984
242,18/19,English Premier League,1285008
243,18/19,English Premier League,1285012
244,18/19,English Premier League,1284992
245,18/19,English Premier League,1284996
246,18/19,English Premier League,1285000
247,18/19,English Premier League,1285016
248,18/19,English Premier League,1284988
249,18/19,English Premier League,1284980
250,18/19,English Premier League,1285004
251,18/19,English Premier League,1284944
252,18/19,English Premier League,1284952
253,18/19,English Premier League,1284956
254,18/19,English Premier League,1284960
255,18/19,English Premier League,1284968
256,18/19,English Premier League,1284972
257,18/19,English Premier League,1284964
258,18/19,English Premier League,1284940
259,18/19,English Premier League,1284976
260,18/19,English Premier League,1284839
261,18/19,English Premier League,1284852
262,18/19,English Premier League,1284932
263,18/19,English Premier League,1284936
264,18/19,English Premier League,1284916
265,18/19,English Premier League,1284920
266,18/19,English Premier League,1284912
267,18/19,English Premier League,1284924
268,18/19,English Premier League,1284908
269,18/19,English Premier League,1284928
270,18/19,English Premier League,1284849
271,18/19,English Premier League,1284829
272,18/19,English Premier League,1284832
273,18/19,English Premier League,1284833
274,18/19,English Premier League,1284845
275,18/19,English Premier League,1284837
276,18/19,English Premier League,1284843
277,18/19,English Premier League,1284831
278,18/19,English Premier League,1284847
279,18/19,English Premier League,1284841
280,18/19,English Premier League,1284835
281,18/19,English Premier League,1284821
282,18/19,English Premier League,1284853
283,18/19,English Premier League,1284848
284,18/19,English Premier League,1284828
285,18/19,English Premier League,1284830
286,18/19,English Premier League,1284842
287,18/19,English Premier League,1284850
288,18/19,English Premier League,1284844
289,18/19,English Premier League,1284846
290,18/19,English Premier League,1284827
291,18/19,English Premier League,1284824
292,18/19,English Premier League,1284822
293,18/19,English Premier League,1284823
294,18/19,English Premier League,1284834
295,18/19,English Premier League,1284836
296,18/19,English Premier League,1284838
297,18/19,English Premier League,1284840
298,18/19,English Premier League,1284826
299,18/19,English Premier League,1284825
300,18/19,English Premier League,1284802
301,18/19,English Premier League,1284811
302,18/19,English Premier League,1284812
303,18/19,English Premier League,1284813
304,18/19,English Premier League,1284815
305,18/19,English Premier League,1284819
306,18/19,English Premier League,1284820
307,18/19,English Premier League,1284817
308,18/19,English Premier League,1284814
309,18/19,English Premier League,1284818
310,18/19,English Premier League,1284816
311,18/19,English Premier League,1284809
312,18/19,English Premier League,1284810
313,18/19,English Premier League,1284801
314,18/19,English Premier League,1284805
315,18/19,English Premier League,1284806
316,18/19,English Premier League,1284807
317,18/19,English Premier League,1284808
318,18/19,English Premier League,1284804
319,18/19,English Premier League,1284803
320,18/19,English Premier League,1284787
321,18/19,English Premier League,1284796
322,18/19,English Premier League,1284797
323,18/19,English Premier League,1284798
324,18/19,English Premier League,1284799
325,18/19,English Premier League,1284793
326,18/19,English Premier League,1284794
327,18/19,English Premier League,1284795
328,18/19,English Premier League,1284792
329,18/19,English Premier League,1284800
330,18/19,English Premier League,1284791
331,18/19,English Premier League,1284788
332,18/19,English Premier League,1284781
333,18/19,English Premier League,1284782
334,18/19,English Premier League,1284784
335,18/19,English Premier League,1284785
336,18/19,English Premier League,1284786
337,18/19,English Premier League,1284789
338,18/19,English Premier League,1284790
339,18/19,English Premier League,1284783
340,18/19,English Premier League,1284766
341,18/19,English Premier League,1284777
342,18/19,English Premier League,1284780
343,18/19,English Premier League,1284771
344,18/19,English Premier League,1284774
345,18/19,English Premier League,1284775
346,18/19,English Premier League,1284776
347,18/19,English Premier League,1284778
348,18/19,English Premier League,1284773
349,18/19,English Premier League,1284772
350,18/19,English Premier League,1284779
351,18/19,English Premier League,1284755
352,18/19,English Premier League,1284770
353,18/19,English Premier League,1284768
354,18/19,English Premier League,1284764
355,18/19,English Premier League,1284761
356,18/19,English Premier League,1284762
357,18/19,English Premier League,1284765
358,18/19,English Premier League,1284769
359,18/19,English Premier League,1284767
360,18/19,English Premier League,1284763
361,18/19,English Premier League,1284753
362,18/19,English Premier League,1284756
363,18/19,English Premier League,1284757
364,18/19,English Premier League,1284759
365,18/19,English Premier League,1284760
366,18/19,English Premier League,1284754
367,18/19,English Premier League,1284758
368,18/19,English Premier League,1284752
369,18/19,English Premier League,1284751
370,18/19,English Premier League,1284746
371,18/19,English Premier League,1284747
372,18/19,English Premier League,1284749
373,18/19,English Premier League,1284742
374,18/19,English Premier League,1284743
375,18/19,English Premier League,1284744
376,18/19,English Premier League,1284750
377,18/19,English Premier League,1284748
378,18/19,English Premier League,1284745
379,18/19,English Premier League,1284741
0,19/20,English Premier League,1376198
1,19/20,English Premier League,1376190
2,19/20,English Premier League,1376204
3,19/20,English Premier League,1376202
4,19/20,English Premier League,1376186
5,19/20,English Premier League,1376194
6,19/20,English Premier League,1376192
7,19/20,English Premier League,1376156
8,19/20,English Premier League,1376159
9,19/20,English Premier League,1376162
10,19/20,English Premier League,1376165
11,19/20,English Premier League,1376168
12,19/20,English Premier League,1376171
13,19/20,English Premier League,1376174
14,19/20,English Premier League,1376177
15,19/20,English Premier League,1376180
16,19/20,English Premier League,1376183
17,19/20,English Premier League,1376195
18,19/20,English Premier League,1376163
19,19/20,English Premier League,1376160
20,19/20,English Premier League,1376175
21,19/20,English Premier League,1376178
22,19/20,English Premier League,1376157
23,19/20,English Premier League,1376169
24,19/20,English Premier League,1376172
25,19/20,English Premier League,1376166
26,19/20,English Premier League,1376181
27,19/20,English Premier League,1376184
28,19/20,English Premier League,1376196
29,19/20,English Premier League,1376188
30,19/20,English Premier League,1376200
31,19/20,English Premier League,1376263
32,19/20,English Premier League,1376170
33,19/20,English Premier League,1376182
34,19/20,English Premier League,1376158
35,19/20,English Premier League,1376176
36,19/20,English Premier League,1376179
37,19/20,English Premier League,1376185
38,19/20,English Premier League,1376167
39,19/20,English Premier League,1376164
40,19/20,English Premier League,1376173
41,19/20,English Premier League,1376161
42,19/20,English Premier League,1376197
43,19/20,English Premier League,1376203
44,19/20,English Premier League,1376193
45,19/20,English Premier League,1376199
46,19/20,English Premier League,1376191
47,19/20,English Premier League,1376205
48,19/20,English Premier League,1376187
49,19/20,English Premier League,1376201
50,19/20,English Premier League,1376189
51,19/20,English Premier League,1376243
52,19/20,English Premier League,1376240
53,19/20,English Premier League,1376246
54,19/20,English Premier League,1376231
55,19/20,English Premier League,1376237
56,19/20,English Premier League,1376254
57,19/20,English Premier League,1376250
58,19/20,English Premier League,1376248
59,19/20,English Premier League,1376261
60,19/20,English Premier League,1376257
61,19/20,English Premier League,1376259
62,19/20,English Premier League,1376264
63,19/20,English Premier League,1376256
64,19/20,English Premier League,1376255
65,19/20,English Premier League,1376260
66,19/20,English Premier League,1376258
67,19/20,English Premier League,1376262
68,19/20,English Premier League,1376212
69,19/20,English Premier League,1376230
70,19/20,English Premier League,1376225
71,19/20,English Premier League,1376228
72,19/20,English Premier League,1376236
73,19/20,English Premier League,1376239
74,19/20,English Premier League,1376242
75,19/20,English Premier League,1376233
76,19/20,English Premier League,1376224
77,19/20,English Premier League,1376245
78,19/20,English Premier League,1376227
79,19/20,English Premier League,1376234
80,19/20,English Premier League,1376252
81,19/20,English Premier League,1376152
82,19/20,English Premier League,1376213
83,19/20,English Premier League,1376216
84,19/20,English Premier League,1376218
85,19/20,English Premier League,1376220
86,19/20,English Premier League,1376208
87,19/20,English Premier League,1376222
88,19/20,English Premier League,1376206
89,19/20,English Premier League,1376214
90,19/20,English Premier League,1376253
91,19/20,English Premier League,1376210
92,19/20,English Premier League,1376238
93,19/20,English Premier League,1376241
94,19/20,English Premier League,1376247
95,19/20,English Premier League,1376249
96,19/20,English Premier League,1376251
97,19/20,English Premier League,1376226
98,19/20,English Premier League,1376235
99,19/20,English Premier League,1376229
100,19/20,English Premier League,1376232
101,19/20,English Premier League,1376244
102,19/20,English Premier League,1376135
103,19/20,English Premier League,1376217
104,19/20,English Premier League,1376209
105,19/20,English Premier League,1376207
106,19/20,English Premier League,1376215
107,19/20,English Premier League,1376223
108,19/20,English Premier League,1376221
109,19/20,English Premier League,1376211
110,19/20,English Premier League,1376219
111,19/20,English Premier League,1376087
112,19/20,English Premier League,1376095
113,19/20,English Premier League,1376123
114,19/20,English Premier League,1376127
115,19/20,English Premier League,1376119
116,19/20,English Premier League,1376143
117,19/20,English Premier League,1376146
118,19/20,English Premier League,1376131
119,19/20,English Premier League,1376139
120,19/20,English Premier League,1376149
121,19/20,English Premier League,1376115
122,19/20,English Premier League,1376111
123,19/20,English Premier League,1376107
124,19/20,English Premier League,1376099
125,19/20,English Premier League,1376079
126,19/20,English Premier League,1376154
127,19/20,English Premier League,1376091
128,19/20,English Premier League,1376083
129,19/20,English Premier League,1376103
130,19/20,English Premier League,1376271
131,19/20,English Premier League,1376129
132,19/20,English Premier League,1376133
133,19/20,English Premier League,1376117
134,19/20,English Premier League,1376141
135,19/20,English Premier League,1376148
136,19/20,English Premier League,1376151
137,19/20,English Premier League,1376125
138,19/20,English Premier League,1376137
139,19/20,English Premier League,1376121
140,19/20,English Premier League,1376145
141,19/20,English Premier League,1376113
142,19/20,English Premier League,1376078
143,19/20,English Premier League,1376081
144,19/20,English Premier League,1376085
145,19/20,English Premier League,1376093
146,19/20,English Premier League,1376105
147,19/20,English Premier League,1376109
148,19/20,English Premier League,1376089
149,19/20,English Premier League,1376101
150,19/20,English Premier League,1376097
151,19/20,English Premier League,1376153
152,19/20,English Premier League,1376155
153,19/20,English Premier League,1376124
154,19/20,English Premier League,1376128
155,19/20,English Premier League,1376140
156,19/20,English Premier League,1376147
157,19/20,English Premier League,1376150
158,19/20,English Premier League,1376144
159,19/20,English Premier League,1376132
160,19/20,English Premier League,1376136
161,19/20,English Premier League,1376112
162,19/20,English Premier League,1376096
163,19/20,English Premier League,1376100
164,19/20,English Premier League,1376104
165,19/20,English Premier League,1376108
166,19/20,English Premier League,1376092
167,19/20,English Premier League,1376120
168,19/20,English Premier League,1376116
169,19/20,English Premier League,1376088
170,19/20,English Premier League,1376084
171,19/20,English Premier League,1376114
172,19/20,English Premier League,1376118
173,19/20,English Premier League,1376130
174,19/20,English Premier League,1376138
175,19/20,English Premier League,1376142
176,19/20,English Premier League,1376134
177,19/20,English Premier League,1376080
178,19/20,English Premier League,1376126
179,19/20,English Premier League,1376110
180,19/20,English Premier League,1376122
181,19/20,English Premier League,1376280
182,19/20,English Premier League,1376272
183,19/20,English Premier League,1376273
184,19/20,English Premier League,1376274
185,19/20,English Premier League,1376275
186,19/20,English Premier League,1376276
187,19/20,English Premier League,1376279
188,19/20,English Premier League,1376278
189,19/20,English Premier League,1376277
190,19/20,English Premier League,1376281
191,19/20,English Premier League,1376283
192,19/20,English Premier League,1376098
193,19/20,English Premier League,1376102
194,19/20,English Premier League,1376090
195,19/20,English Premier League,1376094
196,19/20,English Premier League,1376106
197,19/20,English Premier League,1376284
198,19/20,English Premier League,1376282
199,19/20,English Premier League,1376082
200,19/20,English Premier League,1376086
201,19/20,English Premier League,1376295
202,19/20,English Premier League,1376265
203,19/20,English Premier League,1376267
204,19/20,English Premier League,1376268
205,19/20,English Premier League,1376303
206,19/20,English Premier League,1376304
207,19/20,English Premier League,1376305
208,19/20,English Premier League,1376266
209,19/20,English Premier League,1376270
210,19/20,English Premier League,1376269
211,19/20,English Premier League,1376291
212,19/20,English Premier League,1376297
213,19/20,English Premier League,1376293
214,19/20,English Premier League,1376294
215,19/20,English Premier League,1376296
216,19/20,English Premier League,1376299
217,19/20,English Premier League,1376301
218,19/20,English Premier League,1376302
219,19/20,English Premier League,1376298
220,19/20,English Premier League,1376292
221,19/20,English Premier League,1376071
222,19/20,English Premier League,1376057
223,19/20,English Premier League,1376059
224,19/20,English Premier League,1376063
225,19/20,English Premier League,1376065
226,19/20,English Premier League,1376067
227,19/20,English Premier League,1376069
228,19/20,English Premier League,1376073
229,19/20,English Premier League,1376061
230,19/20,English Premier League,1376055
231,19/20,English Premier League,1376285
232,19/20,English Premier League,1376289
233,19/20,English Premier League,1376290
234,19/20,English Premier League,1376077
235,19/20,English Premier League,1376286
236,19/20,English Premier League,1376287
237,19/20,English Premier League,1376288
238,19/20,English Premier League,1376075
239,19/20,English Premier League,1376300
240,19/20,English Premier League,1376017
241,19/20,English Premier League,1376045
242,19/20,English Premier League,1376041
243,19/20,English Premier League,1376035
244,19/20,English Premier League,1376037
245,19/20,English Premier League,1376051
246,19/20,English Premier League,1376049
247,19/20,English Premier League,1376053
248,19/20,English Premier League,1376047
249,19/20,English Premier League,1376043
250,19/20,English Premier League,1376039
251,19/20,English Premier League,1376033
252,19/20,English Premier League,1376031
253,19/20,English Premier League,1376015
254,19/20,English Premier League,1376019
255,19/20,English Premier League,1376021
256,19/20,English Premier League,1376023
257,19/20,English Premier League,1376025
258,19/20,English Premier League,1376027
259,19/20,English Premier League,1376029
260,19/20,English Premier League,1376007
261,19/20,English Premier League,1375997
262,19/20,English Premier League,1375995
263,19/20,English Premier League,1376009
264,19/20,English Premier League,1376011
265,19/20,English Premier League,1376005
266,19/20,English Premier League,1375999
267,19/20,English Premier League,1376013
268,19/20,English Premier League,1376003
269,19/20,English Premier League,1376001
270,19/20,English Premier League,1375982
271,19/20,English Premier League,1375983
272,19/20,English Premier League,1375980
273,19/20,English Premier League,1375981
274,19/20,English Premier League,1375987
275,19/20,English Premier League,1375989
276,19/20,English Premier League,1375993
277,19/20,English Premier League,1375991
278,19/20,English Premier League,1375984
279,19/20,English Premier League,1375985
280,19/20,English Premier League,1376064
281,19/20,English Premier League,1375977
282,19/20,English Premier League,1376306
283,19/20,English Premier League,1375978
284,19/20,English Premier League,1375979
285,19/20,English Premier League,1376072
286,19/20,English Premier League,1376074
287,19/20,English Premier League,1375975
288,19/20,English Premier League,1375976
289,19/20,English Premier League,1376076
290,19/20,English Premier League,1376070
291,19/20,English Premier League,1376058
292,19/20,English Premier League,1376060
293,19/20,English Premier League,1376066
294,19/20,English Premier League,1376068
295,19/20,English Premier League,1376050
296,19/20,English Premier League,1376052
297,19/20,English Premier League,1376054
298,19/20,English Premier League,1376056
299,19/20,English Premier League,1376062
300,19/20,English Premier League,1376022
301,19/20,English Premier League,1376032
302,19/20,English Premier League,1376034
303,19/20,English Premier League,1376036
304,19/20,English Premier League,1376042
305,19/20,English Premier League,1376046
306,19/20,English Premier League,1376048
307,19/20,English Premier League,1376044
308,19/20,English Premier League,1376030
309,19/20,English Premier League,1376038
310,19/20,English Premier League,1376040
311,19/20,English Premier League,1376024
312,19/20,English Premier League,1376026
313,19/20,English Premier League,1376028
314,19/20,English Premier League,1376010
315,19/20,English Premier League,1376012
316,19/20,English Premier League,1376014
317,19/20,English Premier League,1376016
318,19/20,English Premier League,1376018
319,19/20,English Premier League,1376020
320,19/20,English Premier League,1375962
321,19/20,English Premier League,1376006
322,19/20,English Premier League,1376000
323,19/20,English Premier League,1376002
324,19/20,English Premier League,1375992
325,19/20,English Premier League,1375998
326,19/20,English Premier League,1376004
327,19/20,English Premier League,1375996
328,19/20,English Premier League,1376008
329,19/20,English Premier League,1375994
330,19/20,English Premier League,1375990
331,19/20,English Premier League,1375965
332,19/20,English Premier League,1375967
333,19/20,English Premier League,1375964
334,19/20,English Premier League,1375971
335,19/20,English Premier League,1375973
336,19/20,English Premier League,1375988
337,19/20,English Premier League,1375969
338,19/20,English Premier League,1375963
339,19/20,English Premier League,1375986
340,19/20,English Premier League,1375960
341,19/20,English Premier League,1375961
342,19/20,English Premier League,1375957
343,19/20,English Premier League,1375958
344,19/20,English Premier League,1375959
345,19/20,English Premier League,1375954
346,19/20,English Premier League,1375955
347,19/20,English Premier League,1375953
348,19/20,English Premier League,1375956
349,19/20,English Premier League,1375952
350,19/20,English Premier League,1375946
351,19/20,English Premier League,1375947
352,19/20,English Premier League,1375970
353,19/20,English Premier League,1375972
354,19/20,English Premier League,1375968
355,19/20,English Premier League,1375949
356,19/20,English Premier League,1375950
357,19/20,English Premier League,1375966
358,19/20,English Premier League,1375948
359,19/20,English Premier League,1375951
360,19/20,English Premier League,1375974
361,19/20,English Premier League,1375937
362,19/20,English Premier League,1375938
363,19/20,English Premier League,1375939
364,19/20,English Premier League,1375941
365,19/20,English Premier League,1375943
366,19/20,English Premier League,1375945
367,19/20,English Premier League,1375942
368,19/20,English Premier League,1375944
369,19/20,English Premier League,1375940
370,19/20,English Premier League,1375927
371,19/20,English Premier League,1375928
372,19/20,English Premier League,1375929
373,19/20,English Premier League,1375930
374,19/20,English Premier League,1375931
375,19/20,English Premier League,1375933
376,19/20,English Premier League,1375934
377,19/20,English Premier League,1375935
378,19/20,English Premier League,1375932
379,19/20,English Premier League,1375936
0,20/21,English Premier League,1485541
1,20/21,English Premier League,1485545
2,20/21,English Premier League,1485531
3,20/21,English Premier League,1485535
4,20/21,English Premier League,1485543
5,20/21,English Premier League,1485547
6,20/21,English Premier League,1485539
7,20/21,English Premier League,1485537
8,20/21,English Premier League,1485533
9,20/21,English Premier League,1485549
10,20/21,English Premier League,1485551
11,20/21,English Premier League,1485553
12,20/21,English Premier League,1485555
13,20/21,English Premier League,1485557
14,20/21,English Premier League,1485558
15,20/21,English Premier League,1485559
16,20/21,English Premier League,1485560
17,20/21,English Premier League,1485561
18,20/21,English Premier League,1485562
19,20/21,English Premier League,1485563
20,20/21,English Premier League,1485495
21,20/21,English Premier League,1485517
22,20/21,English Premier League,1485534
23,20/21,English Premier League,1485521
24,20/21,English Premier League,1485371
25,20/21,English Premier League,1485481
26,20/21,English Premier League,1485523
27,20/21,English Premier League,1485513
28,20/21,English Premier League,1485525
29,20/21,English Premier League,1485511
30,20/21,English Premier League,1485529
31,20/21,English Premier League,1485527
32,20/21,English Premier League,1485519
33,20/21,English Premier League,1485515
34,20/21,English Premier League,1485489
35,20/21,English Premier League,1485473
36,20/21,English Premier League,1485499
37,20/21,English Premier League,1485497
38,20/21,English Premier League,1485505
39,20/21,English Premier League,1485503
40,20/21,English Premier League,1485501
41,20/21,English Premier League,1485509
42,20/21,English Premier League,1485493
43,20/21,English Premier League,1485507
44,20/21,English Premier League,1485491
45,20/21,English Premier League,1485546
46,20/21,English Premier League,1485485
47,20/21,English Premier League,1485477
48,20/21,English Premier League,1485471
49,20/21,English Premier League,1485475
50,20/21,English Premier League,1485479
51,20/21,English Premier League,1485483
52,20/21,English Premier League,1485487
53,20/21,English Premier League,1485526
54,20/21,English Premier League,1485522
55,20/21,English Premier League,1485472
56,20/21,English Premier League,1485520
57,20/21,English Premier League,1485528
58,20/21,English Premier League,1485538
59,20/21,English Premier League,1485548
60,20/21,English Premier League,1485554
61,20/21,English Premier League,1485552
62,20/21,English Premier League,1485556
63,20/21,English Premier League,1485544
64,20/21,English Premier League,1485540
65,20/21,English Premier League,1485514
66,20/21,English Premier League,1485498
67,20/21,English Premier League,1485524
68,20/21,English Premier League,1485532
69,20/21,English Premier League,1485536
70,20/21,English Premier League,1485518
71,20/21,English Premier League,1485530
72,20/21,English Premier League,1485484
73,20/21,English Premier League,1485496
74,20/21,English Premier League,1485504
75,20/21,English Premier League,1485508
76,20/21,English Premier League,1485506
77,20/21,English Premier League,1485502
78,20/21,English Premier League,1485500
79,20/21,English Premier League,1485516
80,20/21,English Premier League,1485512
81,20/21,English Premier League,1485510
82,20/21,English Premier League,1485482
83,20/21,English Premier League,1485486
84,20/21,English Premier League,1485488
85,20/21,English Premier League,1485478
86,20/21,English Premier League,1485494
87,20/21,English Premier League,1485492
88,20/21,English Premier League,1485480
89,20/21,English Premier League,1485490
90,20/21,English Premier League,1485424
91,20/21,English Premier League,1485436
92,20/21,English Premier League,1485427
93,20/21,English Premier League,1485476
94,20/21,English Premier League,1485341
95,20/21,English Premier League,1485376
96,20/21,English Premier League,1485394
97,20/21,English Premier League,1485550
98,20/21,English Premier League,1485418
99,20/21,English Premier League,1485409
100,20/21,English Premier League,1485400
101,20/21,English Premier League,1485403
102,20/21,English Premier League,1485406
103,20/21,English Premier League,1485421
104,20/21,English Premier League,1485412
105,20/21,English Premier League,1485397
106,20/21,English Premier League,1485415
107,20/21,English Premier League,1485343
108,20/21,English Premier League,1485441
109,20/21,English Premier League,1485443
110,20/21,English Premier League,1485430
111,20/21,English Premier League,1485433
112,20/21,English Premier League,1485474
113,20/21,English Premier League,1485542
114,20/21,English Premier League,1485439
115,20/21,English Premier League,1485373
116,20/21,English Premier League,1485385
117,20/21,English Premier League,1485367
118,20/21,English Premier League,1485370
119,20/21,English Premier League,1485391
120,20/21,English Premier League,1485379
121,20/21,English Premier League,1485382
122,20/21,English Premier League,1485388
123,20/21,English Premier League,1485435
124,20/21,English Premier League,1485347
125,20/21,English Premier League,1485352
126,20/21,English Premier League,1485364
127,20/21,English Premier League,1485346
128,20/21,English Premier League,1485355
129,20/21,English Premier League,1485349
130,20/21,English Premier League,1485340
131,20/21,English Premier League,1485361
132,20/21,English Premier League,1485337
133,20/21,English Premier League,1485358
134,20/21,English Premier League,1485426
135,20/21,English Premier League,1485405
136,20/21,English Premier League,1485468
137,20/21,English Premier League,1485458
138,20/21,English Premier League,1485334
139,20/21,English Premier League,1485328
140,20/21,English Premier League,1485438
141,20/21,English Premier League,1485442
142,20/21,English Premier League,1485440
143,20/21,English Premier League,1485331
144,20/21,English Premier League,1485432
145,20/21,English Premier League,1485429
146,20/21,English Premier League,1485325
147,20/21,English Premier League,1485378
148,20/21,English Premier League,1485414
149,20/21,English Premier League,1485408
150,20/21,English Premier League,1485417
151,20/21,English Premier League,1485402
152,20/21,English Premier League,1485420
153,20/21,English Premier League,1485423
154,20/21,English Premier League,1485399
155,20/21,English Premier League,1485411
156,20/21,English Premier League,1485351
157,20/21,English Premier League,1485354
158,20/21,English Premier League,1485357
159,20/21,English Premier League,1485360
160,20/21,English Premier League,1485342
161,20/21,English Premier League,1485345
162,20/21,English Premier League,1485348
163,20/21,English Premier League,1485339
164,20/21,English Premier League,1485366
165,20/21,English Premier League,1485363
166,20/21,English Premier League,1485369
167,20/21,English Premier League,1485372
168,20/21,English Premier League,1485387
169,20/21,English Premier League,1485375
170,20/21,English Premier League,1485384
171,20/21,English Premier League,1485393
172,20/21,English Premier League,1485396
173,20/21,English Premier League,1485381
174,20/21,English Premier League,1485390
175,20/21,English Premier League,1485416
176,20/21,English Premier League,1485425
177,20/21,English Premier League,1485419
178,20/21,English Premier League,1485410
179,20/21,English Premier League,1485413
180,20/21,English Premier League,1485401
181,20/21,English Premier League,1485398
182,20/21,English Premier League,1485404
183,20/21,English Premier League,1485407
184,20/21,English Premier League,1485422
185,20/21,English Premier League,1485322
186,20/21,English Premier League,1485327
187,20/21,English Premier League,1485333
188,20/21,English Premier League,1485437
189,20/21,English Premier League,1485428
190,20/21,English Premier League,1485330
191,20/21,English Premier League,1485434
192,20/21,English Premier League,1485324
193,20/21,English Premier League,1485336
194,20/21,English Premier League,1485431
195,20/21,English Premier League,1485368
196,20/21,English Premier League,1485356
197,20/21,English Premier League,1485350
198,20/21,English Premier League,1485185
199,20/21,English Premier League,1485344
200,20/21,English Premier League,1485362
201,20/21,English Premier League,1485256
202,20/21,English Premier League,1485353
203,20/21,English Premier League,1485359
204,20/21,English Premier League,1485184
205,20/21,English Premier League,1485365
206,20/21,English Premier League,1485465
207,20/21,English Premier League,1485338
208,20/21,English Premier League,1485395
209,20/21,English Premier League,1485392
210,20/21,English Premier League,1485377
211,20/21,English Premier League,1485374
212,20/21,English Premier League,1485380
213,20/21,English Premier League,1485389
214,20/21,English Premier League,1485383
215,20/21,English Premier League,1485386
216,20/21,English Premier League,1485329
217,20/21,English Premier League,1485456
218,20/21,English Premier League,1485454
219,20/21,English Premier League,1485464
220,20/21,English Premier League,1485466
221,20/21,English Premier League,1485450
222,20/21,English Premier League,1485452
223,20/21,English Premier League,1485460
224,20/21,English Premier League,1485462
225,20/21,English Premier League,1485321
226,20/21,English Premier League,1485323
227,20/21,English Premier League,1485332
228,20/21,English Premier League,1485470
229,20/21,English Premier League,1485467
230,20/21,English Premier League,1485335
231,20/21,English Premier League,1485326
232,20/21,English Premier League,1485469
233,20/21,English Premier League,1485315
234,20/21,English Premier League,1485316
235,20/21,English Premier League,1485444
236,20/21,English Premier League,1485459
237,20/21,English Premier League,1485461
238,20/21,English Premier League,1485457
239,20/21,English Premier League,1485446
240,20/21,English Premier League,1485447
241,20/21,English Premier League,1485463
242,20/21,English Premier League,1485448
243,20/21,English Premier League,1485445
244,20/21,English Premier League,1485449
245,20/21,English Premier League,1485310
246,20/21,English Premier League,1485313
247,20/21,English Premier League,1485302
248,20/21,English Premier League,1485304
249,20/21,English Premier League,1485296
250,20/21,English Premier League,1485300
251,20/21,English Premier League,1485312
252,20/21,English Premier League,1485308
253,20/21,English Premier League,1485298
254,20/21,English Premier League,1485306
255,20/21,English Premier League,1485317
256,20/21,English Premier League,1485451
257,20/21,English Premier League,1485318
258,20/21,English Premier League,1485320
259,20/21,English Premier League,1485314
260,20/21,English Premier League,1485453
261,20/21,English Premier League,1485319
262,20/21,English Premier League,1485455
263,20/21,English Premier League,1485258
264,20/21,English Premier League,1485284
265,20/21,English Premier League,1485294
266,20/21,English Premier League,1485290
267,20/21,English Premier League,1485288
268,20/21,English Premier League,1485280
269,20/21,English Premier League,1485292
270,20/21,English Premier League,1485278
271,20/21,English Premier League,1485282
272,20/21,English Premier League,1485276
273,20/21,English Premier League,1485286
274,20/21,English Premier League,1485246
275,20/21,English Premier League,1485254
276,20/21,English Premier League,1485260
277,20/21,English Premier League,1485266
278,20/21,English Premier League,1485274
279,20/21,English Premier League,1485262
280,20/21,English Premier League,1485272
281,20/21,English Premier League,1485268
282,20/21,English Premier League,1485270
283,20/21,English Premier League,1485264
284,20/21,English Premier League,1485293
285,20/21,English Premier League,1485309
286,20/21,English Premier League,1485242
287,20/21,English Premier League,1485238
288,20/21,English Premier League,1485248
289,20/21,English Premier League,1485244
290,20/21,English Premier League,1485252
291,20/21,English Premier League,1485250
292,20/21,English Premier League,1485240
293,20/21,English Premier League,1485311
294,20/21,English Premier League,1485303
295,20/21,English Premier League,1485291
296,20/21,English Premier League,1485307
297,20/21,English Premier League,1485301
298,20/21,English Premier League,1485295
299,20/21,English Premier League,1485305
300,20/21,English Premier League,1485297
301,20/21,English Premier League,1485299
302,20/21,English Premier League,1485255
303,20/21,English Premier League,1485257
304,20/21,English Premier League,1485273
305,20/21,English Premier League,1485285
306,20/21,English Premier League,1485279
307,20/21,English Premier League,1485277
308,20/21,English Premier League,1485275
309,20/21,English Premier League,1485289
310,20/21,English Premier League,1485287
311,20/21,English Premier League,1485281
312,20/21,English Premier League,1485283
313,20/21,English Premier League,1485271
314,20/21,English Premier League,1485236
315,20/21,English Premier League,1485237
316,20/21,English Premier League,1485269
317,20/21,English Premier League,1485265
318,20/21,English Premier League,1485253
319,20/21,English Premier League,1485259
320,20/21,English Premier League,1485251
321,20/21,English Premier League,1485263
322,20/21,English Premier League,1485261
323,20/21,English Premier League,1485267
324,20/21,English Premier League,1485233
325,20/21,English Premier League,1485227
326,20/21,English Premier League,1485235
327,20/21,English Premier League,1485247
328,20/21,English Premier League,1485239
329,20/21,English Premier League,1485243
330,20/21,English Premier League,1485241
331,20/21,English Premier League,1485245
332,20/21,English Premier League,1485249
333,20/21,English Premier League,1485234
334,20/21,English Premier League,1485226
335,20/21,English Premier League,1485224
336,20/21,English Premier League,1485229
337,20/21,English Premier League,1485230
338,20/21,English Premier League,1485231
339,20/21,English Premier League,1485225
340,20/21,English Premier League,1485232
341,20/21,English Premier League,1485228
342,20/21,English Premier League,1485207
343,20/21,English Premier League,1485208
344,20/21,English Premier League,1485216
345,20/21,English Premier League,1485217
346,20/21,English Premier League,1485218
347,20/21,English Premier League,1485221
348,20/21,English Premier League,1485222
349,20/21,English Premier League,1485219
350,20/21,English Premier League,1485214
351,20/21,English Premier League,1485223
352,20/21,English Premier League,1485220
353,20/21,English Premier League,1485215
354,20/21,English Premier League,1485195
355,20/21,English Premier League,1485203
356,20/21,English Premier League,1485204
357,20/21,English Premier League,1485206
358,20/21,English Premier League,1485212
359,20/21,English Premier League,1485205
360,20/21,English Premier League,1485210
361,20/21,English Premier League,1485211
362,20/21,English Premier League,1485209
363,20/21,English Premier League,1485213
364,20/21,English Premier League,1485193
365,20/21,English Premier League,1485192
366,20/21,English Premier League,1485197
367,20/21,English Premier League,1485198
368,20/21,English Premier League,1485200
369,20/21,English Premier League,1485194
370,20/21,English Premier League,1485202
371,20/21,English Premier League,1485201
372,20/21,English Premier League,1485196
373,20/21,English Premier League,1485199
374,20/21,English Premier League,1485187
375,20/21,English Premier League,1485186
376,20/21,English Premier League,1485188
377,20/21,English Premier League,1485191
378,20/21,English Premier League,1485190
379,20/21,English Premier League,1485189
0,17/18,FA Cup,1278049
1,17/18,FA Cup,1275110
2,17/18,FA Cup,1275109
3,17/18,FA Cup,1273181
4,17/18,FA Cup,1271248
5,17/18,FA Cup,1271672
6,17/18,FA Cup,1271249
7,17/18,FA Cup,1271250
8,17/18,FA Cup,1271255
9,17/18,FA Cup,1267449
10,17/18,FA Cup,1267447
11,17/18,FA Cup,1267446
12,17/18,FA Cup,1268758
13,17/18,FA Cup,1267445
14,17/18,FA Cup,1267448
15,17/18,FA Cup,1268759
16,17/18,FA Cup,1268978
17,17/18,FA Cup,1267318
18,17/18,FA Cup,1267320
19,17/18,FA Cup,1267319
20,17/18,FA Cup,1267321
21,17/18,FA Cup,1260370
22,17/18,FA Cup,1256824
23,17/18,FA Cup,1260371
24,17/18,FA Cup,1260751
25,17/18,FA Cup,1260752
26,17/18,FA Cup,1256825
27,17/18,FA Cup,1256826
28,17/18,FA Cup,1256827
29,17/18,FA Cup,1256823
30,17/18,FA Cup,1256829
31,17/18,FA Cup,1256830
32,17/18,FA Cup,1256847
33,17/18,FA Cup,1256828
34,17/18,FA Cup,1256822
35,17/18,FA Cup,1260753
36,17/18,FA Cup,1260372
37,17/18,FA Cup,1256745
38,17/18,FA Cup,1256746
39,17/18,FA Cup,1256749
40,17/18,FA Cup,1256752
41,17/18,FA Cup,1256750
42,17/18,FA Cup,1256751
43,17/18,FA Cup,1256747
44,17/18,FA Cup,1256748
45,17/18,FA Cup,1250095
46,17/18,FA Cup,1250094
47,17/18,FA Cup,1250101
48,17/18,FA Cup,1251026
49,17/18,FA Cup,1250103
50,17/18,FA Cup,1250104
51,17/18,FA Cup,1250105
52,17/18,FA Cup,1250107
53,17/18,FA Cup,1250108
54,17/18,FA Cup,1250109
55,17/18,FA Cup,1250110
56,17/18,FA Cup,1250111
57,17/18,FA Cup,1250112
58,17/18,FA Cup,1250098
59,17/18,FA Cup,1250096
60,17/18,FA Cup,1250091
61,17/18,FA Cup,1250092
62,17/18,FA Cup,1250093
63,17/18,FA Cup,1252673
64,17/18,FA Cup,1250100
65,17/18,FA Cup,1250114
66,17/18,FA Cup,1250115
67,17/18,FA Cup,1250947
68,17/18,FA Cup,1250948
69,17/18,FA Cup,1250949
70,17/18,FA Cup,1250950
71,17/18,FA Cup,1251016
72,17/18,FA Cup,1250113
73,17/18,FA Cup,1250097
74,17/18,FA Cup,1250106
75,17/18,FA Cup,1250102
76,17/18,FA Cup,1250099
77,17/18,FA Cup,1250010
78,17/18,FA Cup,1250008
79,17/18,FA Cup,1250009
80,17/18,FA Cup,1250011
81,17/18,FA Cup,1250018
82,17/18,FA Cup,1250019
83,17/18,FA Cup,1250012
84,17/18,FA Cup,1247190
85,17/18,FA Cup,1247196
86,17/18,FA Cup,1247198
87,17/18,FA Cup,1247199
88,17/18,FA Cup,1247200
89,17/18,FA Cup,1247186
90,17/18,FA Cup,1247188
91,17/18,FA Cup,1247189
92,17/18,FA Cup,1247192
93,17/18,FA Cup,1247194
94,17/18,FA Cup,1247197
95,17/18,FA Cup,1247195
96,17/18,FA Cup,1247193
97,17/18,FA Cup,1247191
98,17/18,FA Cup,1247187
99,17/18,FA Cup,1247201
100,17/18,FA Cup,1247722
101,17/18,FA Cup,1247723
102,17/18,FA Cup,1247766
103,17/18,FA Cup,1247938
104,17/18,FA Cup,1247130
105,17/18,FA Cup,1247156
106,17/18,FA Cup,1247158
107,17/18,FA Cup,1247131
108,17/18,FA Cup,1247157
109,17/18,FA Cup,1246392
110,17/18,FA Cup,1246098
111,17/18,FA Cup,1246122
112,17/18,FA Cup,1246125
113,17/18,FA Cup,1246115
114,17/18,FA Cup,1246097
115,17/18,FA Cup,1246121
116,17/18,FA Cup,1246117
117,17/18,FA Cup,1246118
118,17/18,FA Cup,1246119
119,17/18,FA Cup,1246126
120,17/18,FA Cup,1246127
121,17/18,FA Cup,1246384
122,17/18,FA Cup,1246385
123,17/18,FA Cup,1246387
124,17/18,FA Cup,1246113
125,17/18,FA Cup,1246114
126,17/18,FA Cup,1246109
127,17/18,FA Cup,1246110
128,17/18,FA Cup,1246111
129,17/18,FA Cup,1246100
130,17/18,FA Cup,1246101
131,17/18,FA Cup,1246102
132,17/18,FA Cup,1246104
133,17/18,FA Cup,1246105
134,17/18,FA Cup,1246106
135,17/18,FA Cup,1246390
136,17/18,FA Cup,1246391
137,17/18,FA Cup,1246124
138,17/18,FA Cup,1246107
139,17/18,FA Cup,1246099
140,17/18,FA Cup,1246112
141,17/18,FA Cup,1246108
142,17/18,FA Cup,1246103
143,17/18,FA Cup,1246388
144,17/18,FA Cup,1246389
145,17/18,FA Cup,1246123
146,17/18,FA Cup,1246386
147,17/18,FA Cup,1246120
148,17/18,FA Cup,1246116
0,18/19,FA Cup,1369358
1,18/19,FA Cup,1368141
2,18/19,FA Cup,1368142
3,18/19,FA Cup,1364325
4,18/19,FA Cup,1364326
5,18/19,FA Cup,1364324
6,18/19,FA Cup,1364323
7,18/19,FA Cup,1361593
8,18/19,FA Cup,1362629
9,18/19,FA Cup,1362971
10,18/19,FA Cup,1361591
11,18/19,FA Cup,1362628
12,18/19,FA Cup,1362632
13,18/19,FA Cup,1361592
14,18/19,FA Cup,1362631
15,18/19,FA Cup,1361498
16,18/19,FA Cup,1361499
17,18/19,FA Cup,1361594
18,18/19,FA Cup,1361497
19,18/19,FA Cup,1361500
20,18/19,FA Cup,1351196
21,18/19,FA Cup,1351192
22,18/19,FA Cup,1351198
23,18/19,FA Cup,1356347
24,18/19,FA Cup,1355246
25,18/19,FA Cup,1355244
26,18/19,FA Cup,1351193
27,18/19,FA Cup,1351194
28,18/19,FA Cup,1351195
29,18/19,FA Cup,1351197
30,18/19,FA Cup,1351188
31,18/19,FA Cup,1351191
32,18/19,FA Cup,1351190
33,18/19,FA Cup,1351189
34,18/19,FA Cup,1351199
35,18/19,FA Cup,1355245
36,18/19,FA Cup,1351095
37,18/19,FA Cup,1351096
38,18/19,FA Cup,1351097
39,18/19,FA Cup,1351098
40,18/19,FA Cup,1341527
41,18/19,FA Cup,1343725
42,18/19,FA Cup,1341520
43,18/19,FA Cup,1341522
44,18/19,FA Cup,1341526
45,18/19,FA Cup,1341529
46,18/19,FA Cup,1341507
47,18/19,FA Cup,1341508
48,18/19,FA Cup,1341518
49,18/19,FA Cup,1341512
50,18/19,FA Cup,1341514
51,18/19,FA Cup,1341515
52,18/19,FA Cup,1341509
53,18/19,FA Cup,1341505
54,18/19,FA Cup,1341506
55,18/19,FA Cup,1341530
56,18/19,FA Cup,1341528
57,18/19,FA Cup,1342414
58,18/19,FA Cup,1342415
59,18/19,FA Cup,1343828
60,18/19,FA Cup,1341525
61,18/19,FA Cup,1341511
62,18/19,FA Cup,1341516
63,18/19,FA Cup,1341513
64,18/19,FA Cup,1341519
65,18/19,FA Cup,1341517
66,18/19,FA Cup,1341504
67,18/19,FA Cup,1341510
68,18/19,FA Cup,1341523
69,18/19,FA Cup,1341524
70,18/19,FA Cup,1341521
71,18/19,FA Cup,1342413
72,18/19,FA Cup,1341237
73,18/19,FA Cup,1341198
74,18/19,FA Cup,1341233
75,18/19,FA Cup,1341234
76,18/19,FA Cup,1341235
77,18/19,FA Cup,1339373
78,18/19,FA Cup,1339376
79,18/19,FA Cup,1339877
80,18/19,FA Cup,1339879
81,18/19,FA Cup,1339880
82,18/19,FA Cup,1339882
83,18/19,FA Cup,1339883
84,18/19,FA Cup,1339378
85,18/19,FA Cup,1339380
86,18/19,FA Cup,1339390
87,18/19,FA Cup,1339876
88,18/19,FA Cup,1339375
89,18/19,FA Cup,1339374
90,18/19,FA Cup,1339377
91,18/19,FA Cup,1339379
92,18/19,FA Cup,1340113
93,18/19,FA Cup,1340114
94,18/19,FA Cup,1340115
95,18/19,FA Cup,1339881
96,18/19,FA Cup,1339878
97,18/19,FA Cup,1339302
98,18/19,FA Cup,1339303
99,18/19,FA Cup,1339304
100,18/19,FA Cup,1339305
101,18/19,FA Cup,1339306
102,18/19,FA Cup,1339307
103,18/19,FA Cup,1339308
104,18/19,FA Cup,1339310
105,18/19,FA Cup,1339311
106,18/19,FA Cup,1339312
107,18/19,FA Cup,1339314
108,18/19,FA Cup,1339309
109,18/19,FA Cup,1339313
110,18/19,FA Cup,1338398
111,18/19,FA Cup,1338366
112,18/19,FA Cup,1338522
113,18/19,FA Cup,1338694
114,18/19,FA Cup,1338521
115,18/19,FA Cup,1338368
116,18/19,FA Cup,1338369
117,18/19,FA Cup,1338371
118,18/19,FA Cup,1338372
119,18/19,FA Cup,1338375
120,18/19,FA Cup,1338378
121,18/19,FA Cup,1338380
122,18/19,FA Cup,1338382
123,18/19,FA Cup,1338384
124,18/19,FA Cup,1338385
125,18/19,FA Cup,1338386
126,18/19,FA Cup,1338388
127,18/19,FA Cup,1338389
128,18/19,FA Cup,1338390
129,18/19,FA Cup,1338392
130,18/19,FA Cup,1338393
131,18/19,FA Cup,1338397
132,18/19,FA Cup,1338519
133,18/19,FA Cup,1338520
134,18/19,FA Cup,1338394
135,18/19,FA Cup,1338395
136,18/19,FA Cup,1338387
137,18/19,FA Cup,1338383
138,18/19,FA Cup,1338374
139,18/19,FA Cup,1338367
140,18/19,FA Cup,1338379
141,18/19,FA Cup,1338377
142,18/19,FA Cup,1338391
143,18/19,FA Cup,1338396
144,18/19,FA Cup,1338518
145,18/19,FA Cup,1338695
146,18/19,FA Cup,1338381
147,18/19,FA Cup,1338370
148,18/19,FA Cup,1338376
149,18/19,FA Cup,1338373
0,19/20,FA Cup,1469516
1,19/20,FA Cup,1462621
2,19/20,FA Cup,1462620
3,19/20,FA Cup,1457409
4,19/20,FA Cup,1457284
5,19/20,FA Cup,1457286
6,19/20,FA Cup,1457285
7,19/20,FA Cup,1452208
8,19/20,FA Cup,1453401
9,19/20,FA Cup,1453404
10,19/20,FA Cup,1453406
11,19/20,FA Cup,1453780
12,19/20,FA Cup,1452191
13,19/20,FA Cup,1453405
14,19/20,FA Cup,1453402
15,19/20,FA Cup,1451712
16,19/20,FA Cup,1451724
17,19/20,FA Cup,1451725
18,19/20,FA Cup,1452176
19,19/20,FA Cup,1451726
20,19/20,FA Cup,1451727
21,19/20,FA Cup,1443402
22,19/20,FA Cup,1442791
23,19/20,FA Cup,1443393
24,19/20,FA Cup,1443394
25,19/20,FA Cup,1443395
26,19/20,FA Cup,1443396
27,19/20,FA Cup,1443397
28,19/20,FA Cup,1443398
29,19/20,FA Cup,1443400
30,19/20,FA Cup,1447029
31,19/20,FA Cup,1447031
32,19/20,FA Cup,1447032
33,19/20,FA Cup,1447049
34,19/20,FA Cup,1443392
35,19/20,FA Cup,1443399
36,19/20,FA Cup,1451118
37,19/20,FA Cup,1447030
38,19/20,FA Cup,1442787
39,19/20,FA Cup,1442788
40,19/20,FA Cup,1442790
41,19/20,FA Cup,1443047
42,19/20,FA Cup,1443048
43,19/20,FA Cup,1442812
44,19/20,FA Cup,1442789
45,19/20,FA Cup,1434421
46,19/20,FA Cup,1434409
47,19/20,FA Cup,1434417
48,19/20,FA Cup,1434424
49,19/20,FA Cup,1434425
50,19/20,FA Cup,1434426
51,19/20,FA Cup,1436145
52,19/20,FA Cup,1435105
53,19/20,FA Cup,1434419
54,19/20,FA Cup,1435107
55,19/20,FA Cup,1434414
56,19/20,FA Cup,1434415
57,19/20,FA Cup,1434416
58,19/20,FA Cup,1434411
59,19/20,FA Cup,1434402
60,19/20,FA Cup,1434407
61,19/20,FA Cup,1434404
62,19/20,FA Cup,1434400
63,19/20,FA Cup,1434412
64,19/20,FA Cup,1434410
65,19/20,FA Cup,1434420
66,19/20,FA Cup,1434423
67,19/20,FA Cup,1435106
68,19/20,FA Cup,1436196
69,19/20,FA Cup,1434413
70,19/20,FA Cup,1434418
71,19/20,FA Cup,1434401
72,19/20,FA Cup,1434403
73,19/20,FA Cup,1434405
74,19/20,FA Cup,1434406
75,19/20,FA Cup,1434408
76,19/20,FA Cup,1434422
77,19/20,FA Cup,1434390
78,19/20,FA Cup,1434391
79,19/20,FA Cup,1434378
80,19/20,FA Cup,1434379
81,19/20,FA Cup,1434388
82,19/20,FA Cup,1434389
83,19/20,FA Cup,1433204
84,19/20,FA Cup,1433802
85,19/20,FA Cup,1433804
86,19/20,FA Cup,1433705
87,19/20,FA Cup,1433706
88,19/20,FA Cup,1433707
89,19/20,FA Cup,1433202
90,19/20,FA Cup,1433203
91,19/20,FA Cup,1433221
92,19/20,FA Cup,1433702
93,19/20,FA Cup,1433703
94,19/20,FA Cup,1433704
95,19/20,FA Cup,1433205
96,19/20,FA Cup,1433206
97,19/20,FA Cup,1433708
98,19/20,FA Cup,1433709
99,19/20,FA Cup,1433710
100,19/20,FA Cup,1433803
101,19/20,FA Cup,1433201
102,19/20,FA Cup,1433805
103,19/20,FA Cup,1433085
104,19/20,FA Cup,1433086
105,19/20,FA Cup,1433087
106,19/20,FA Cup,1433088
107,19/20,FA Cup,1433092
108,19/20,FA Cup,1433093
109,19/20,FA Cup,1433090
110,19/20,FA Cup,1433118
111,19/20,FA Cup,1433119
112,19/20,FA Cup,1433089
113,19/20,FA Cup,1433094
114,19/20,FA Cup,1433095
115,19/20,FA Cup,1433091
116,19/20,FA Cup,1433084
117,19/20,FA Cup,1431630
118,19/20,FA Cup,1432207
119,19/20,FA Cup,1431633
120,19/20,FA Cup,1431632
121,19/20,FA Cup,1431628
122,19/20,FA Cup,1431629
123,19/20,FA Cup,1431631
124,19/20,FA Cup,1431634
125,19/20,FA Cup,1431635
126,19/20,FA Cup,1431641
127,19/20,FA Cup,1431642
128,19/20,FA Cup,1431643
129,19/20,FA Cup,1431644
130,19/20,FA Cup,1431645
131,19/20,FA Cup,1431638
132,19/20,FA Cup,1431639
133,19/20,FA Cup,1431647
134,19/20,FA Cup,1431649
135,19/20,FA Cup,1431650
136,19/20,FA Cup,1431651
137,19/20,FA Cup,1431652
138,19/20,FA Cup,1431654
139,19/20,FA Cup,1431655
140,19/20,FA Cup,1431656
141,19/20,FA Cup,1431690
142,19/20,FA Cup,1431691
143,19/20,FA Cup,1431692
144,19/20,FA Cup,1431688
145,19/20,FA Cup,1431627
146,19/20,FA Cup,1431648
147,19/20,FA Cup,1431640
148,19/20,FA Cup,1431646
149,19/20,FA Cup,1431636
150,19/20,FA Cup,1431637
151,19/20,FA Cup,1431689
152,19/20,FA Cup,1431694
153,19/20,FA Cup,1431657
154,19/20,FA Cup,1431653
155,19/20,FA Cup,1431693
0,20/21,FA Cup,1542364
1,20/21,FA Cup,1537104
2,20/21,FA Cup,1537105
3,20/21,FA Cup,1528974
4,20/21,FA Cup,1528973
5,20/21,FA Cup,1528986
6,20/21,FA Cup,1528975
7,20/21,FA Cup,1525736
8,20/21,FA Cup,1525665
9,20/21,FA Cup,1525528
10,20/21,FA Cup,1525527
11,20/21,FA Cup,1525663
12,20/21,FA Cup,1525692
13,20/21,FA Cup,1525525
14,20/21,FA Cup,1525656
15,20/21,FA Cup,1519791
16,20/21,FA Cup,1519784
17,20/21,FA Cup,1515560
18,20/21,FA Cup,1519788
19,20/21,FA Cup,1521796
20,20/21,FA Cup,1519787
21,20/21,FA Cup,1519797
22,20/21,FA Cup,1519793
23,20/21,FA Cup,1519789
24,20/21,FA Cup,1519790
25,20/21,FA Cup,1519785
26,20/21,FA Cup,1519783
27,20/21,FA Cup,1519794
28,20/21,FA Cup,1519795
29,20/21,FA Cup,1519792
30,20/21,FA Cup,1519786
31,20/21,FA Cup,1519796
32,20/21,FA Cup,1515564
33,20/21,FA Cup,1515563
34,20/21,FA Cup,1515580
35,20/21,FA Cup,1515583
36,20/21,FA Cup,1515586
37,20/21,FA Cup,1515652
38,20/21,FA Cup,1515568
39,20/21,FA Cup,1515569
40,20/21,FA Cup,1515561
41,20/21,FA Cup,1515565
42,20/21,FA Cup,1515572
43,20/21,FA Cup,1515573
44,20/21,FA Cup,1515574
45,20/21,FA Cup,1515575
46,20/21,FA Cup,1515567
47,20/21,FA Cup,1515577
48,20/21,FA Cup,1515587
49,20/21,FA Cup,1515579
50,20/21,FA Cup,1515585
51,20/21,FA Cup,1515570
52,20/21,FA Cup,1515559
53,20/21,FA Cup,1515581
54,20/21,FA Cup,1515566
55,20/21,FA Cup,1515571
56,20/21,FA Cup,1515578
57,20/21,FA Cup,1515576
58,20/21,FA Cup,1515582
59,20/21,FA Cup,1515584
60,20/21,FA Cup,1515589
61,20/21,FA Cup,1515562
62,20/21,FA Cup,1515588
63,20/21,FA Cup,1513255
64,20/21,FA Cup,1511666
65,20/21,FA Cup,1513263
66,20/21,FA Cup,1513269
67,20/21,FA Cup,1513271
68,20/21,FA Cup,1513258
69,20/21,FA Cup,1513260
70,20/21,FA Cup,1513265
71,20/21,FA Cup,1513266
72,20/21,FA Cup,1513267
73,20/21,FA Cup,1513262
74,20/21,FA Cup,1513268
75,20/21,FA Cup,1513270
76,20/21,FA Cup,1513261
77,20/21,FA Cup,1513259
78,20/21,FA Cup,1513256
79,20/21,FA Cup,1513257
80,20/21,FA Cup,1513334
81,20/21,FA Cup,1515131
82,20/21,FA Cup,1513264
83,20/21,FA Cup,1513272
84,20/21,FA Cup,1511650
85,20/21,FA Cup,1511657
86,20/21,FA Cup,1511643
87,20/21,FA Cup,1511642
88,20/21,FA Cup,1511641
89,20/21,FA Cup,1511649
90,20/21,FA Cup,1511652
91,20/21,FA Cup,1511655
92,20/21,FA Cup,1511644
93,20/21,FA Cup,1511645
94,20/21,FA Cup,1511646
95,20/21,FA Cup,1511637
96,20/21,FA Cup,1511639
97,20/21,FA Cup,1511658
98,20/21,FA Cup,1511659
99,20/21,FA Cup,1511664
100,20/21,FA Cup,1511665
101,20/21,FA Cup,1511667
102,20/21,FA Cup,1511668
103,20/21,FA Cup,1511671
104,20/21,FA Cup,1511672
105,20/21,FA Cup,1511673
106,20/21,FA Cup,1511674
107,20/21,FA Cup,1511675
108,20/21,FA Cup,1511676
109,20/21,FA Cup,1511662
110,20/21,FA Cup,1511640
111,20/21,FA Cup,1511656
112,20/21,FA Cup,1511661
113,20/21,FA Cup,1511663
114,20/21,FA Cup,1511669
115,20/21,FA Cup,1511670
116,20/21,FA Cup,1511660
117,20/21,FA Cup,1511653
118,20/21,FA Cup,1511651
119,20/21,FA Cup,1511638
120,20/21,FA Cup,1511647
121,20/21,FA Cup,1511648
122,20/21,FA Cup,1511654
0,17/18,Champions League,1238300
1,17/18,Champions League,1238301
2,17/18,Champions League,1238312
3,17/18,Champions League,1238313
4,17/18,Champions League,1238324
5,17/18,Champions League,1238325
6,17/18,Champions League,1238336
7,17/18,Champions League,1238337
8,17/18,Champions League,1238360
9,17/18,Champions League,1238361
10,17/18,Champions League,1238348
11,17/18,Champions League,1238349
12,17/18,Champions League,1238372
13,17/18,Champions League,1238373
14,17/18,Champions League,1238288
15,17/18,Champions League,1238289
16,17/18,Champions League,1238359
17,17/18,Champions League,1238286
18,17/18,Champions League,1238287
19,17/18,Champions League,1238358
20,17/18,Champions League,1238346
21,17/18,Champions League,1238347
22,17/18,Champions League,1238370
23,17/18,Champions League,1238371
24,17/18,Champions League,1238298
25,17/18,Champions League,1238334
26,17/18,Champions League,1238335
27,17/18,Champions League,1238299
28,17/18,Champions League,1238310
29,17/18,Champions League,1238311
30,17/18,Champions League,1238322
31,17/18,Champions League,1238323
32,17/18,Champions League,1238296
33,17/18,Champions League,1238297
34,17/18,Champions League,1238308
35,17/18,Champions League,1238309
36,17/18,Champions League,1238320
37,17/18,Champions League,1238321
38,17/18,Champions League,1238332
39,17/18,Champions League,1238333
40,17/18,Champions League,1238356
41,17/18,Champions League,1238357
42,17/18,Champions League,1238344
43,17/18,Champions League,1238345
44,17/18,Champions League,1238368
45,17/18,Champions League,1238369
46,17/18,Champions League,1238284
47,17/18,Champions League,1238285
48,17/18,Champions League,1238354
49,17/18,Champions League,1238355
50,17/18,Champions League,1238342
51,17/18,Champions League,1238343
52,17/18,Champions League,1238366
53,17/18,Champions League,1238367
54,17/18,Champions League,1238282
55,17/18,Champions League,1238283
56,17/18,Champions League,1238330
57,17/18,Champions League,1238331
58,17/18,Champions League,1238294
59,17/18,Champions League,1238295
60,17/18,Champions League,1238306
61,17/18,Champions League,1238307
62,17/18,Champions League,1238318
63,17/18,Champions League,1238319
64,17/18,Champions League,1238352
65,17/18,Champions League,1238353
66,17/18,Champions League,1238340
67,17/18,Champions League,1238341
68,17/18,Champions League,1238364
69,17/18,Champions League,1238365
70,17/18,Champions League,1238280
71,17/18,Champions League,1238281
72,17/18,Champions League,1238329
73,17/18,Champions League,1238292
74,17/18,Champions League,1238293
75,17/18,Champions League,1238304
76,17/18,Champions League,1238305
77,17/18,Champions League,1238316
78,17/18,Champions League,1238317
79,17/18,Champions League,1238328
80,17/18,Champions League,1238290
81,17/18,Champions League,1238291
82,17/18,Champions League,1238302
83,17/18,Champions League,1238303
84,17/18,Champions League,1238314
85,17/18,Champions League,1238315
86,17/18,Champions League,1238326
87,17/18,Champions League,1238327
88,17/18,Champions League,1238350
89,17/18,Champions League,1238351
90,17/18,Champions League,1238338
91,17/18,Champions League,1238339
92,17/18,Champions League,1238362
93,17/18,Champions League,1238363
94,17/18,Champions League,1238278
95,17/18,Champions League,1238279
0,17/18,Champions League,1278491
1,17/18,Champions League,1277383
2,17/18,Champions League,1277384
3,17/18,Champions League,1277382
4,17/18,Champions League,1277381
5,17/18,Champions League,1274958
6,17/18,Champions League,1274964
7,17/18,Champions League,1274960
8,17/18,Champions League,1274962
9,17/18,Champions League,1274959
10,17/18,Champions League,1274961
11,17/18,Champions League,1274963
12,17/18,Champions League,1274956
13,17/18,Champions League,1250818
14,17/18,Champions League,1250820
15,17/18,Champions League,1250822
16,17/18,Champions League,1250821
17,17/18,Champions League,1250817
18,17/18,Champions League,1250819
19,17/18,Champions League,1250815
20,17/18,Champions League,1250816
21,17/18,Champions League,1250813
22,17/18,Champions League,1250814
23,17/18,Champions League,1250810
24,17/18,Champions League,1250812
25,17/18,Champions League,1250807
26,17/18,Champions League,1250808
27,17/18,Champions League,1250809
28,17/18,Champions League,1250811
0,18/19,Champions League,1328427
1,18/19,Champions League,1328428
2,18/19,Champions League,1328377
3,18/19,Champions League,1328378
4,18/19,Champions League,1328401
5,18/19,Champions League,1328402
6,18/19,Champions League,1328415
7,18/19,Champions League,1328416
8,18/19,Champions League,1328463
9,18/19,Champions League,1328464
10,18/19,Champions League,1328365
11,18/19,Champions League,1328366
12,18/19,Champions League,1328439
13,18/19,Champions League,1328440
14,18/19,Champions League,1328451
15,18/19,Champions League,1328452
16,18/19,Champions League,1328437
17,18/19,Champions League,1328461
18,18/19,Champions League,1328462
19,18/19,Champions League,1328363
20,18/19,Champions League,1328364
21,18/19,Champions League,1328438
22,18/19,Champions League,1328449
23,18/19,Champions League,1328450
24,18/19,Champions League,1328425
25,18/19,Champions League,1328403
26,18/19,Champions League,1328404
27,18/19,Champions League,1328399
28,18/19,Champions League,1328400
29,18/19,Champions League,1328413
30,18/19,Champions League,1328414
31,18/19,Champions League,1328426
32,18/19,Champions League,1328373
33,18/19,Champions League,1328412
34,18/19,Champions League,1328374
35,18/19,Champions League,1328397
36,18/19,Champions League,1328398
37,18/19,Champions League,1328411
38,18/19,Champions League,1328423
39,18/19,Champions League,1328424
40,18/19,Champions League,1328459
41,18/19,Champions League,1328362
42,18/19,Champions League,1328460
43,18/19,Champions League,1328361
44,18/19,Champions League,1328435
45,18/19,Champions League,1328436
46,18/19,Champions League,1328447
47,18/19,Champions League,1328448
48,18/19,Champions League,1328433
49,18/19,Champions League,1328359
50,18/19,Champions League,1328360
51,18/19,Champions League,1328457
52,18/19,Champions League,1328458
53,18/19,Champions League,1328434
54,18/19,Champions League,1328445
55,18/19,Champions League,1328446
56,18/19,Champions League,1328395
57,18/19,Champions League,1328371
58,18/19,Champions League,1328372
59,18/19,Champions League,1328396
60,18/19,Champions League,1328409
61,18/19,Champions League,1328410
62,18/19,Champions League,1328421
63,18/19,Champions League,1328422
64,18/19,Champions League,1328443
65,18/19,Champions League,1328357
66,18/19,Champions League,1328358
67,18/19,Champions League,1328431
68,18/19,Champions League,1328432
69,18/19,Champions League,1328455
70,18/19,Champions League,1328456
71,18/19,Champions League,1328444
72,18/19,Champions League,1328419
73,18/19,Champions League,1328408
74,18/19,Champions League,1328420
75,18/19,Champions League,1328369
76,18/19,Champions League,1328370
77,18/19,Champions League,1328393
78,18/19,Champions League,1328394
79,18/19,Champions League,1328407
80,18/19,Champions League,1328391
81,18/19,Champions League,1328392
82,18/19,Champions League,1328405
83,18/19,Champions League,1328406
84,18/19,Champions League,1328417
85,18/19,Champions League,1328418
86,18/19,Champions League,1328367
87,18/19,Champions League,1328368
88,18/19,Champions League,1328442
89,18/19,Champions League,1328429
90,18/19,Champions League,1328430
91,18/19,Champions League,1328441
92,18/19,Champions League,1328453
93,18/19,Champions League,1328454
94,18/19,Champions League,1328355
95,18/19,Champions League,1328356
0,18/19,Champions League,1372676
1,18/19,Champions League,1370008
2,18/19,Champions League,1370010
3,18/19,Champions League,1370009
4,18/19,Champions League,1370007
5,18/19,Champions League,1368026
6,18/19,Champions League,1368032
7,18/19,Champions League,1368028
8,18/19,Champions League,1368030
9,18/19,Champions League,1368027
10,18/19,Champions League,1368029
11,18/19,Champions League,1368031
12,18/19,Champions League,1368025
13,18/19,Champions League,1343402
14,18/19,Champions League,1343403
15,18/19,Champions League,1343406
16,18/19,Champions League,1343409
17,18/19,Champions League,1343405
18,18/19,Champions League,1343408
19,18/19,Champions League,1343404
20,18/19,Champions League,1343407
21,18/19,Champions League,1343398
22,18/19,Champions League,1343401
23,18/19,Champions League,1343394
24,18/19,Champions League,1343395
25,18/19,Champions League,1343396
26,18/19,Champions League,1343399
27,18/19,Champions League,1343400
28,18/19,Champions League,1343397
0,19/20,Champions League,1426946
1,19/20,Champions League,1426947
2,19/20,Champions League,1426963
3,19/20,Champions League,1426965
4,19/20,Champions League,1426984
5,19/20,Champions League,1426985
6,19/20,Champions League,1426951
7,19/20,Champions League,1426958
8,19/20,Champions League,1426920
9,19/20,Champions League,1426921
10,19/20,Champions League,1426891
11,19/20,Champions League,1426898
12,19/20,Champions League,1426905
13,19/20,Champions League,1426912
14,19/20,Champions League,1426929
15,19/20,Champions League,1426936
16,19/20,Champions League,1426901
17,19/20,Champions League,1426927
18,19/20,Champions League,1426892
19,19/20,Champions League,1426926
20,19/20,Champions League,1426903
21,19/20,Champions League,1426910
22,19/20,Champions League,1426917
23,19/20,Champions League,1426925
24,19/20,Champions League,1426970
25,19/20,Champions League,1426982
26,19/20,Champions League,1426983
27,19/20,Champions League,1426973
28,19/20,Champions League,1426952
29,19/20,Champions League,1426961
30,19/20,Champions League,1426942
31,19/20,Champions League,1426945
32,19/20,Champions League,1426956
33,19/20,Champions League,1426968
34,19/20,Champions League,1426978
35,19/20,Champions League,1426981
36,19/20,Champions League,1426955
37,19/20,Champions League,1426966
38,19/20,Champions League,1426941
39,19/20,Champions League,1426948
40,19/20,Champions League,1426930
41,19/20,Champions League,1426906
42,19/20,Champions League,1426907
43,19/20,Champions League,1426922
44,19/20,Champions League,1426923
45,19/20,Champions League,1426931
46,19/20,Champions League,1426895
47,19/20,Champions League,1426896
48,19/20,Champions League,1426915
49,19/20,Champions League,1426933
50,19/20,Champions League,1426932
51,19/20,Champions League,1426894
52,19/20,Champions League,1426897
53,19/20,Champions League,1426908
54,19/20,Champions League,1426909
55,19/20,Champions League,1426914
56,19/20,Champions League,1426980
57,19/20,Champions League,1426969
58,19/20,Champions League,1426979
59,19/20,Champions League,1426967
60,19/20,Champions League,1426954
61,19/20,Champions League,1426957
62,19/20,Champions League,1426940
63,19/20,Champions League,1426949
64,19/20,Champions League,1426890
65,19/20,Champions League,1426919
66,19/20,Champions League,1426899
67,19/20,Champions League,1426904
68,19/20,Champions League,1426913
69,19/20,Champions League,1426918
70,19/20,Champions League,1426928
71,19/20,Champions League,1426937
72,19/20,Champions League,1426939
73,19/20,Champions League,1426959
74,19/20,Champions League,1426938
75,19/20,Champions League,1426950
76,19/20,Champions League,1426962
77,19/20,Champions League,1426964
78,19/20,Champions League,1426976
79,19/20,Champions League,1426977
80,19/20,Champions League,1426953
81,19/20,Champions League,1426972
82,19/20,Champions League,1426974
83,19/20,Champions League,1426975
84,19/20,Champions League,1426971
85,19/20,Champions League,1426960
86,19/20,Champions League,1426943
87,19/20,Champions League,1426944
88,19/20,Champions League,1426893
89,19/20,Champions League,1426911
90,19/20,Champions League,1426916
91,19/20,Champions League,1426924
92,19/20,Champions League,1426900
93,19/20,Champions League,1426902
94,19/20,Champions League,1426934
95,19/20,Champions League,1426935
0,19/20,Champions League,1484098
1,19/20,Champions League,1484307
2,19/20,Champions League,1485116
3,19/20,Champions League,1465744
4,19/20,Champions League,1465743
5,19/20,Champions League,1481961
6,19/20,Champions League,1481618
7,19/20,Champions League,1435983
8,19/20,Champions League,1435990
9,19/20,Champions League,1435994
10,19/20,Champions League,1435989
11,19/20,Champions League,1435985
12,19/20,Champions League,1435992
13,19/20,Champions League,1435981
14,19/20,Champions League,1435987
15,19/20,Champions League,1435980
16,19/20,Champions League,1435988
17,19/20,Champions League,1435991
18,19/20,Champions League,1435982
19,19/20,Champions League,1435979
20,19/20,Champions League,1435986
21,19/20,Champions League,1435993
22,19/20,Champions League,1435984
0,20/21,Champions League,1508907
1,20/21,Champions League,1508908
2,20/21,Champions League,1508919
3,20/21,Champions League,1508920
4,20/21,Champions League,1508932
5,20/21,Champions League,1508895
6,20/21,Champions League,1508896
7,20/21,Champions League,1508883
8,20/21,Champions League,1508884
9,20/21,Champions League,1508931
10,20/21,Champions League,1508847
11,20/21,Champions League,1508848
12,20/21,Champions League,1508859
13,20/21,Champions League,1508860
14,20/21,Champions League,1508871
15,20/21,Champions League,1508872
16,20/21,Champions League,1508857
17,20/21,Champions League,1508845
18,20/21,Champions League,1508846
19,20/21,Champions League,1508858
20,20/21,Champions League,1508869
21,20/21,Champions League,1508870
22,20/21,Champions League,1508881
23,20/21,Champions League,1508882
24,20/21,Champions League,1508893
25,20/21,Champions League,1508929
26,20/21,Champions League,1508930
27,20/21,Champions League,1508894
28,20/21,Champions League,1508905
29,20/21,Champions League,1508906
30,20/21,Champions League,1508917
31,20/21,Champions League,1508918
32,20/21,Champions League,1508891
33,20/21,Champions League,1508892
34,20/21,Champions League,1508903
35,20/21,Champions League,1508904
36,20/21,Champions League,1508915
37,20/21,Champions League,1508916
38,20/21,Champions League,1508927
39,20/21,Champions League,1508928
40,20/21,Champions League,1508855
41,20/21,Champions League,1508867
42,20/21,Champions League,1508868
43,20/21,Champions League,1508879
44,20/21,Champions League,1508880
45,20/21,Champions League,1508856
46,20/21,Champions League,1508843
47,20/21,Champions League,1508844
48,20/21,Champions League,1508853
49,20/21,Champions League,1508839
50,20/21,Champions League,1508840
51,20/21,Champions League,1508854
52,20/21,Champions League,1508865
53,20/21,Champions League,1508866
54,20/21,Champions League,1508877
55,20/21,Champions League,1508878
56,20/21,Champions League,1508925
57,20/21,Champions League,1508901
58,20/21,Champions League,1508902
59,20/21,Champions League,1508913
60,20/21,Champions League,1508914
61,20/21,Champions League,1508926
62,20/21,Champions League,1508889
63,20/21,Champions League,1508890
64,20/21,Champions League,1508842
65,20/21,Champions League,1508851
66,20/21,Champions League,1508852
67,20/21,Champions League,1508863
68,20/21,Champions League,1508864
69,20/21,Champions League,1508875
70,20/21,Champions League,1508876
71,20/21,Champions League,1508841
72,20/21,Champions League,1508923
73,20/21,Champions League,1508887
74,20/21,Champions League,1508888
75,20/21,Champions League,1508899
76,20/21,Champions League,1508900
77,20/21,Champions League,1508911
78,20/21,Champions League,1508912
79,20/21,Champions League,1508924
80,20/21,Champions League,1508897
81,20/21,Champions League,1508909
82,20/21,Champions League,1508910
83,20/21,Champions League,1508921
84,20/21,Champions League,1508922
85,20/21,Champions League,1508898
86,20/21,Champions League,1508885
87,20/21,Champions League,1508886
88,20/21,Champions League,1508838
89,20/21,Champions League,1508849
90,20/21,Champions League,1508850
91,20/21,Champions League,1508861
92,20/21,Champions League,1508862
93,20/21,Champions League,1508873
94,20/21,Champions League,1508874
95,20/21,Champions League,1508837
0,20/21,Champions League,1544080
1,20/21,Champions League,1541865
2,20/21,Champions League,1541867
3,20/21,Champions League,1541866
4,20/21,Champions League,1541864
5,20/21,Champions League,1536177
6,20/21,Champions League,1536179
7,20/21,Champions League,1536181
8,20/21,Champions League,1536175
9,20/21,Champions League,1536174
10,20/21,Champions League,1536180
11,20/21,Champions League,1536176
12,20/21,Champions League,1536178
13,20/21,Champions League,1516641
14,20/21,Champions League,1516655
15,20/21,Champions League,1516643
16,20/21,Champions League,1516645
17,20/21,Champions League,1516649
18,20/21,Champions League,1516653
19,20/21,Champions League,1516647
20,20/21,Champions League,1516651
21,20/21,Champions League,1516642
22,20/21,Champions League,1516644
23,20/21,Champions League,1516654
24,20/21,Champions League,1516640
25,20/21,Champions League,1516646
26,20/21,Champions League,1516650
27,20/21,Champions League,1516652
28,20/21,Champions League,1516648
